<?xml version="1.0" encoding="UTF-8"?>
<svg width="33px" height="33px" viewBox="0 0 33 33" version="1.1" xmlns="http://www.w3.org/2000/svg" xmlns:xlink="http://www.w3.org/1999/xlink">
    <!-- Generator: Sketch 63.1 (92452) - https://sketch.com -->
    <title>Combined Shape Copy</title>
    <desc>Created with Sketch.</desc>
    <g id="1-Delivery" stroke="none" stroke-width="1" fill="none" fill-rule="evenodd">
        <g id="Delivery-More-Info" transform="translate(-58.000000, -166.000000)" fill="#323232" stroke="#323232" stroke-width="3">
            <g id="Group-2" transform="translate(0.000000, 108.000000)">
                <path d="M88.7004831,60.2967215 C89.099839,60.696419 89.099839,61.3459275 88.7004831,61.745625 L75.9460548,74.4859836 L88.7004831,87.2513233 C89.099839,87.6510209 89.099839,88.3005293 88.7004831,88.7002269 C88.3011272,89.0999244 87.6521739,89.0999244 87.252818,88.7002269 L74.5,75.936 L61.747182,88.7002269 C61.3785458,89.0691784 60.7972348,89.0975593 60.3958795,88.7853695 L60.2995169,88.7002269 C59.900161,88.3005293 59.900161,87.6510209 60.2995169,87.2513233 L60.2995169,87.2513233 L73.0539452,74.4859836 L60.2995169,61.745625 C59.900161,61.3459275 59.900161,60.696419 60.2995169,60.2967215 C60.6988728,59.897024 61.3478261,59.897024 61.747182,60.3217026 L61.747182,60.3217026 L74.5,73.085 L87.252818,60.3217026 C87.6521739,59.897024 88.3011272,59.897024 88.7004831,60.2967215 Z" id="Combined-Shape-Copy"></path>
            </g>
        </g>
    </g>
</svg>